program_counter.vcd
$date
	Sun May 14 00:27:40 2023
$end
$version
	Icarus Verilog
$end
$timescale
	1s
$end
$scope module test $end
$var wire 32 ! Instruction_Code [31:0] $end
$var wire 10 " instruction_address [9:0] $end
$var reg 1 # clk $end
$var reg 1 $ reset $end
$scope module pc $end
$var wire 1 % clk $end
$var wire 1 & reset $end
$var reg 10 ' instruction_address [9:0] $end
$upscope $end
$scope module imem $end
$var wire 32 ( Instruction_Code [31:0] $end
$var wire 10 ) PC [9:0] $end
$var wire 1 & reset $end
$upscope $end
$upscope $end
$enddefinitions $end
#0
$dumpvars
bx )
bx (
bx '
1&
0%
1$
0#
bx "
bx !
$end
#5
b0 '
b111110110000101000111011 !
b111110110000101000111011 (
b0 "
b0 )
1#
1%
#10
0#
0%
0$
0&
#15
b100 '
b1000000111110110000101000111011 !
b1000000111110110000101000111011 (
b100 "
b100 )
1#
1%
#20
0#
0%
#25
b1000 '
b111110111111101000111011 !
b111110111111101000111011 (
b1000 "
b1000 )
1#
1%
#30
0#
0%
#35
b1100 '
b111110111110101000111011 !
b111110111110101000111011 (
b1100 "
b1100 )
1#
1%
#40
0#
0%
#45
b10000 '
b110010110000101010011011 !
b110010110000101010011011 (
b10000 "
b10000 )
1#
1%
#50
0#
0%
#55
b10100 '
b110010111010101010001011 !
b110010111010101010001011 (
b10100 "
b10100 )
1#
1%
#60
0#
0%
#65
b11000 '
b110010110000101010001011 !
b110010110000101010001011 (
b11000 "
b11000 )
1#
1%
#70
0#
0%
#75
b11100 '
b1000000001001111 !
b1000000001001111 (
b11100 "
b11100 )
1#
1%
#80
0#
0%
#85
b100000 '
b100110011101011 !
b100110011101011 (
b100000 "
b100000 )
1#
1%
#90
0#
0%
#95
b100100 '
b111010100000110011101011 !
b111010100000110011101011 (
b100100 "
b100100 )
1#
1%
#100
0#
0%
#105
b101000 '
b111010100001110011101011 !
b111010100001110011101011 (
b101000 "
b101000 )
1#
1%
#110
0#
0%
#115
b101100 '
b10110111011111010101011 !
b10110111011111010101011 (
b101100 "
b101100 )
1#
1%
#120
0#
0%
#125
b110000 '
b10110110110111010101011 !
b10110110110111010101011 (
b110000 "
b110000 )
1#
1%
#130
0#
0%
#135
b110100 '
b110000000000000010110111 !
b110000000000000010110111 (
b110100 "
b110100 )
1#
1%
#140
0#
0%
#145
b111000 '
bx !
bx (
b111000 "
b111000 )
1#
1%
#150
0#
0%
#155
b111100 '
b111100 "
b111100 )
1#
1%
#160
0#
0%
#165
b1000000 '
b1000000 "
b1000000 )
1#
1%
#170
0#
0%
#175
b1000100 '
b1000100 "
b1000100 )
1#
1%
#180
0#
0%
#185
b1001000 '
b1001000 "
b1001000 )
1#
1%
#190
0#
0%
#195
b1001100 '
b1001100 "
b1001100 )
1#
1%
#200
0#
0%
#205
b1010000 '
b1010000 "
b1010000 )
1#
1%
